day 3: text analysis
…
tt <- tweets |> dplyr::select(created_at, text) |> 
  tidytext::unnest_tokens("word", text)

remove as stopwords

tirando as URLs antes, no precisei adicionar termos como https, t.co e similares nas stopwords. 

tt <- tt |> dplyr::filter(!word %in% c(tm::stopwords("pt"),
                                       "ser", "", "pra", "sobre", "q", "vai"))

tt |> dplyr::count(word, sort=T)

## # A tibble: 22,602 x 2
##    word             n
##    <chr>        <int>
##  1 amaznia      7288
##  2 desmatamento   881
##  3 brasil         863
##  4 amazonia       762
##  5 meio           660
##  6 bolsonaro      622
##  7 ambiente       531
##  8 governo        446
##  9 dia            408
## 10 floresta       327
## # ... with 22,592 more rows

tem acentos?

por enquanto tomei a deciso de no filtrar acentos, entendendo que eles so importante pra anlise. no entanto,  importante saber quais palavras tm acento   o que o cdigo abaixo faz.

tt |> dplyr::filter(stringr::str_detect(word, "[-]")) |> dplyr::count(word, sort=T)

## # A tibble: 3,142 x 2
##    word           n
##    <chr>      <int>
##  1 amaznia    7288
##  2 t           270
##  3 indgenas    260
##  4 mouro       203
##  5 pas         202
##  6 sade        190
##  7 destruio   188
##  8 educao     173
##  9 operao     167
## 10 lderes      161
## # ... with 3,132 more rows

tem pontuao/caracacteres especiais? se sim, remover

\W  uma regex para remover caracteres que no so letras (non-word characters)

tt |> dplyr::filter(stringr::str_detect(word, "\\W")) |> dplyr::count(word, sort=T)

## # A tibble: 77 x 2
##    word        n
##    <chr>   <int>
##  1 ong's       3
##  2 0,01        2
##  3 0,1         2
##  4 10,2        2
##  5 5,5         2
##  6 d'gua      2
##  7 ongs       2
##  8 wdiaspi<U+2069>     2
##  9 0,00        1
## 10 0,10        1
## # ... with 67 more rows

opa, tem sim, ento removendo

tt |> dplyr::filter(stringr::str_detect(word, "\\W")) |> 
  dplyr::mutate(word = stringr::str_remove_all(word, "\\W")) |> 
  dplyr::count(word, sort=T)

## # A tibble: 75 x 2
##    word        n
##    <chr>   <int>
##  1 ongs        5
##  2 dgua       3
##  3 001         2
##  4 01          2
##  5 102         2
##  6 55          2
##  7 wdiaspi     2
##  8 000         1
##  9 010         1
## 10 040         1
## # ... with 65 more rows

epa, pera. percebeu que essa regex removeu tambm o ponto de nmeros, a 4.0 virou 40? penso que pode ser um problema na anlise, porque no representa exatamente a expresso original. ento vou remover todas as pontuaes menos as que esto entre nmeros.

pra isso, fiz a regex ^\d+(?:(\.|,)\d+)*$ que adaptei daqui pra identificar ponto ou vrgula entre nmeros. no cdigo abaixo, a pontuao s  removida quando esse padro no  identificado.

tt |> dplyr::filter(stringr::str_detect(word, "\\W")) |> 
  dplyr::mutate(word = dplyr::if_else(stringr::str_detect(word, "^\\d+(?:(\\.|,)\\d+)*$"), word,
                                      stringr::str_remove_all(word, "\\W"))) |> 
  dplyr::count(word, sort=T)

## # A tibble: 75 x 2
##    word        n
##    <chr>   <int>
##  1 ongs        5
##  2 dgua       3
##  3 0,01        2
##  4 0,1         2
##  5 10,2        2
##  6 5,5         2
##  7 wdiaspi     2
##  8 0,00        1
##  9 0,10        1
## 10 0,40        1
## # ... with 65 more rows

tt <- tt |>
  dplyr::mutate(word = dplyr::if_else(stringr::str_detect(word, "^\\d+(?:(\\.|,)\\d+)*$"), word,
                                      stringr::str_remove_all(word, "\\W")))

palavras incomuns?

inverse document frequency: til para palavras pouco frequentes, mas aqui no mostrou muita coisa

tt_idf <- tt |> dplyr::count(word, created_at) |>
  tidytext::bind_tf_idf(word, created_at, n)

tt_idf |> dplyr::arrange(desc(tf_idf))

## # A tibble: 124,181 x 6
##    word               created_at              n    tf   idf tf_idf
##    <chr>              <dttm>              <int> <dbl> <dbl>  <dbl>
##  1 boa_amizade        2021-06-07 14:16:36     1     1  9.26   9.26
##  2 copywitable        2021-06-11 00:55:32     1     1  9.26   9.26
##  3 fabiobpedro        2021-06-09 22:34:35     1     1  9.26   9.26
##  4 furlan_maiara38    2021-06-05 03:21:43     1     1  9.26   9.26
##  5 hlder             2021-06-04 23:35:29     1     1  9.26   9.26
##  6 ibrags             2021-06-13 03:34:28     1     1  9.26   9.26
##  7 isoladosnaamaznia 2021-06-08 21:58:23     1     1  9.26   9.26
##  8 manbol             2021-06-11 04:04:22     1     1  9.26   9.26
##  9 mortadeladavila    2021-06-11 23:05:07     1     1  9.26   9.26
## 10 nikkolafan         2021-06-10 19:31:20     1     1  9.26   9.26
## # ... with 124,171 more rows

cria a document-term matrix

agora que j temos as palavras tratadas, o ltimo passo antes de estruturar para a anlise seria fazer o stemming (reduzir as palavras  forma mais bsica). mas tentei aqui (no cdigo abaixo) e no funcionou muito bem no portugus 

tt |> dplyr::mutate(word = SnowballC::wordStem(words = word, language = "pt")) |> 
  dplyr::count(word, sort=T)

## # A tibble: 15,580 x 2
##    word         n
##    <chr>    <int>
##  1 amazn    7398
##  2 desmat    1151
##  3 amazon    1028
##  4 brasil     873
##  5 mei        676
##  6 bolsonar   657
##  7 ambient    641
##  8 govern     620
##  9 faz        583
## 10 quer       564
## # ... with 15,570 more rows
…
